nama,deskripsi,stok
Campanulaceae,Cyanea kahiliensis (H. St. John) Lammers,1
Solanaceae,Nothocestrum latifolium A. Gray,2
Myrtaceae,Rhodomyrtus (DC.) Rchb.,3
Pinaceae,Pinus koraiensis Siebold & Zucc.,4
Poaceae,Lagurus ovatus L.,5
Caryophyllaceae,Schiedea stellarioides H. Mann,6
Polygonaceae,Polygonum polygaloides Wall. ex Meisn. ssp. kelloggii (Greene) J.C. Hickman,7
Grimmiaceae,Schistidium Brid.,8
Liliaceae,Hosta lancifolia (Thunb.) Engl.,9
Polemoniaceae,Ipomopsis roseata (Rydb.) V.E. Grant,10
Asteraceae,Blepharizonia plumosa (Kellogg) Greene ssp. plumosa,11
Euphorbiaceae,Euphorbia floridana Chapm.,12
Asteraceae,Hieracium gronovii L.,13
Cyperaceae,Carex lonchocarpa Willd.,14
Grimmiaceae,Racomitrium varium (Mitt.) A. Jaeger,15
Verbenaceae,Verbena xutha Lehm.,16
Asteraceae,Cyclachaena Fresen.,17
Asteraceae,Rudbeckia klamathensis P. Cox & Urbatsch,18
Asteraceae,Bidens macrocarpa (A. Gray) Sherff,19
Polemoniaceae,Gilia transmontana (H. Mason & A.D. Grant) A.D. Grant & V.E. Grant,20
Umbilicariaceae,Umbilicaria crustulosa (Ach.) Frey,21
Rhizocarpaceae,Rhizocarpon lindsayanum Rasanen,22
Pottiaceae,Globulinella Steere,23
Rutaceae,Citrus jambhiri Lush.,24
